{
  "$schema": "https://docs.renovatebot.com/renovate-schema.json",
  "extends": [
    "local>hpc-registry/renovate-config",
    "local>hpc-registry/renovate-config//managers/dockerfile.json5",
    ":assignAndReview(mminar)",
    ":automergeLinters",
    ":automergePatch",
    ":automergeDigest",
  ],
  "customManagers": [
    {
      "customType": "regex",
      "fileMatch": ["^image/Dockerfile$"],
      "matchStrings": ["\\bARG\\s+NETBOOT_REVISION=(?<currentDigest>.*?)\\n"],
      "currentValueTemplate": "main",
      "depNameTemplate": "danderson/netboot",
      "packageNameTemplate": "https://github.com/danderson/netboot",
      "datasourceTemplate": "git-refs",
      "versioningTemplate": "git",
    },
  ],
}
